[gd_scene load_steps=5 format=2]

[ext_resource path="res://objects/powerups/sprites/medpack.png" type="Texture" id=1]
[ext_resource path="res://objects/powerups/PowerUp.gd" type="Script" id=2]

[sub_resource type="RectangleShape2D" id=1]
extents = Vector2( 13.5, 8.5 )

[sub_resource type="RectangleShape2D" id=2]
extents = Vector2( 10, 1.5 )

[node name="MedPack" type="KinematicBody2D"]
scale = Vector2( 0.8, 0.8 )
collision_layer = 8
collision_mask = 3
script = ExtResource( 2 )

[node name="Area2D" type="Area2D" parent="."]
collision_layer = 8
collision_mask = 3

[node name="CollisionShape2D" type="CollisionShape2D" parent="Area2D"]
position = Vector2( -0.5, 1.5 )
shape = SubResource( 1 )

[node name="Sprite" type="Sprite" parent="."]
texture = ExtResource( 1 )

[node name="CollisionShape2D" type="CollisionShape2D" parent="."]
position = Vector2( 0, 8.5 )
shape = SubResource( 2 )

[node name="sound" type="AudioStreamPlayer2D" parent="."]

[connection signal="body_entered" from="Area2D" to="." method="_on_Area2D_body_entered"]
