[gd_scene load_steps=8 format=2]

[ext_resource path="res://objects/smoke-fire/sprites/whitepuff/whitePuff00.png" type="Texture" id=1]
[ext_resource path="res://objects/smoke-fire/smoke-red.gd" type="Script" id=2]

[sub_resource type="Gradient" id=1]
offsets = PoolRealArray( 0, 0.647761, 0.997015 )
colors = PoolColorArray( 0.45098, 0, 0, 0.545098, 1, 0.639216, 0.356863, 0.211765, 1, 0.992157, 0.984314, 0 )

[sub_resource type="GradientTexture" id=2]
gradient = SubResource( 1 )

[sub_resource type="Curve" id=3]
_data = [ Vector2( 0, 1 ), 0.0, 0.0, 0, 0, Vector2( 1, 0.382955 ), 0.0, 0.0, 0, 0 ]

[sub_resource type="CurveTexture" id=4]
curve = SubResource( 3 )

[sub_resource type="ParticlesMaterial" id=5]
lifetime_randomness = 0.5
emission_shape = 2
emission_box_extents = Vector3( 5, 5, 1 )
flag_disable_z = true
direction = Vector3( 0, -1, 0 )
spread = 0.0
gravity = Vector3( 0, 0, 0 )
initial_velocity = 25.0
angular_velocity = 20.0
orbit_velocity = 0.0
orbit_velocity_random = 0.0
linear_accel = 25.0
linear_accel_random = 1.0
angle = 45.0
scale = 0.02
scale_curve = SubResource( 4 )
color_ramp = SubResource( 2 )

[node name="smoke-red" type="Particles2D"]
show_behind_parent = true
amount = 150
lifetime = 2.0
local_coords = false
process_material = SubResource( 5 )
texture = ExtResource( 1 )
script = ExtResource( 2 )

[node name="Timer" type="Timer" parent="."]
wait_time = 5.0

[connection signal="timeout" from="Timer" to="." method="_on_Timer_timeout"]
