[gd_scene load_steps=7 format=2]

[ext_resource path="res://objects/weapons/freeze_gun/freeze_missile.tscn" type="PackedScene" id=1]
[ext_resource path="res://objects/pickups/shooter.gd" type="Script" id=2]
[ext_resource path="res://objects/pickups/sprites/freeze_gun.png" type="Texture" id=3]

[sub_resource type="RectangleShape2D" id=1]
extents = Vector2( 28.5, 10 )

[sub_resource type="RectangleShape2D" id=2]
extents = Vector2( 6, 1.5 )

[sub_resource type="AudioStreamOGGVorbis" id=3]
data = PoolByteArray( 79, 103, 103, 83, 0, 2, 0, 0, 0, 0, 0, 0, 0, 0, 170, 102, 6, 14, 0, 0, 0, 0, 114, 140, 4, 143, 1, 30, 1, 118, 111, 114, 98, 105, 115, 0, 0, 0, 0, 2, 192, 93, 0, 0, 0, 0, 0, 0, 106, 4, 1, 0, 0, 0, 0, 0, 169, 1, 79, 103, 103, 83, 0, 0, 0, 0, 0, 0, 0, 0, 0, 0, 170, 102, 6, 14, 1, 0, 0, 0, 108, 65, 255, 210, 15, 64, 255, 255, 255, 255, 255, 255, 255, 255, 255, 255, 255, 255, 255, 182, 3, 118, 111, 114, 98, 105, 115, 13, 0, 0, 0, 76, 97, 118, 102, 53, 57, 46, 50, 55, 46, 49, 48, 48, 1, 0, 0, 0, 31, 0, 0, 0, 101, 110, 99, 111, 100, 101, 114, 61, 76, 97, 118, 99, 53, 57, 46, 51, 55, 46, 49, 48, 48, 32, 108, 105, 98, 118, 111, 114, 98, 105, 115, 1, 5, 118, 111, 114, 98, 105, 115, 33, 66, 67, 86, 1, 0, 64, 0, 0, 24, 66, 16, 42, 5, 173, 99, 142, 58, 200, 21, 33, 140, 25, 162, 160, 66, 202, 41, 199, 29, 66, 208, 33, 163, 36, 67, 136, 58, 198, 53, 199, 24, 99, 71, 185, 100, 138, 66, 201, 129, 208, 144, 85, 0, 0, 64, 0, 0, 164, 28, 87, 80, 114, 73, 45, 231, 156, 115, 163, 24, 87, 204, 113, 232, 32, 231, 156, 115, 229, 32, 103, 204, 113, 9, 37, 231, 156, 115, 142, 57, 231, 146, 114, 142, 49, 231, 156, 115, 163, 24, 87, 14, 114, 41, 45, 231, 156, 115, 129, 20, 71, 138, 113, 167, 24, 231, 156, 115, 164, 28, 71, 138, 113, 168, 24, 231, 156, 115, 109, 49, 183, 146, 114, 206, 57, 231, 156, 115, 230, 32, 135, 82, 114, 174, 53, 231, 156, 115, 164, 24, 103, 14, 114, 11, 37, 231, 156, 115, 198, 32, 103, 204, 113, 235, 32, 231, 156, 115, 140, 53, 183, 212, 114, 206, 57, 231, 156, 115, 206, 57, 231, 156, 115, 206, 57, 231, 156, 115, 140, 49, 231, 156, 115, 206, 57, 231, 156, 115, 110, 49, 231, 22, 115, 174, 57, 231, 156, 115, 206, 57, 231, 28, 115, 206, 57, 231, 156, 115, 32, 52, 100, 21, 0, 144, 0, 0, 160, 161, 40, 138, 226, 40, 14, 16, 26, 178, 10, 0, 200, 0, 0, 16, 64, 113, 20, 71, 145, 20, 75, 177, 28, 203, 209, 36, 13, 8, 13, 89, 5, 0, 0, 1, 0, 8, 0, 0, 160, 72, 134, 164, 72, 138, 165, 88, 142, 102, 105, 158, 38, 122, 162, 40, 154, 162, 42, 171, 178, 105, 202, 178, 44, 203, 178, 235, 186, 46, 16, 26, 178, 10, 0, 72, 0, 0, 80, 81, 20, 197, 112, 20, 7, 8, 13, 89, 5, 0, 100, 0, 0, 8, 96, 40, 138, 163, 56, 142, 228, 88, 146, 165, 89, 158, 7, 132, 134, 172, 2, 0, 128, 0, 0, 4, 0, 0, 80, 12, 71, 177, 20, 77, 241, 36, 207, 242, 60, 207, 243, 60, 207, 243, 60, 207, 243, 60, 207, 243, 60, 207, 243, 60, 207, 243, 60, 13, 8, 13, 89, 5, 0, 32, 0, 0, 0, 130, 40, 100, 24, 3, 66, 67, 86, 1, 0, 64, 0, 0, 8, 33, 26, 25, 67, 157, 82, 18, 92, 10, 22, 66, 28, 17, 67, 29, 66, 206, 67, 169, 165, 131, 224, 41, 133, 37, 99, 210, 83, 172, 65, 8, 33, 124, 239, 61, 247, 222, 123, 239, 129, 208, 144, 85, 0, 0, 16, 0, 0, 97, 20, 56, 136, 129, 199, 36, 8, 33, 132, 98, 20, 39, 68, 113, 166, 32, 8, 33, 132, 229, 36, 88, 202, 121, 232, 36, 8, 221, 131, 16, 66, 184, 156, 123, 203, 185, 247, 222, 123, 32, 52, 100, 21, 0, 0, 8, 0, 192, 32, 132, 16, 66, 8, 33, 132, 16, 66, 8, 41, 164, 148, 82, 72, 41, 166, 152, 98, 138, 41, 199, 28, 115, 204, 49, 199, 32, 131, 12, 50, 232, 160, 147, 78, 58, 201, 164, 146, 78, 58, 202, 36, 163, 142, 82, 107, 41, 181, 20, 83, 76, 177, 229, 22, 99, 173, 181, 214, 156, 115, 175, 65, 41, 99, 140, 49, 198, 24, 99, 140, 49, 198, 24, 99, 140, 49, 198, 24, 35, 8, 13, 89, 5, 0, 128, 0, 0, 16, 6, 25, 100, 144, 65, 8, 33, 132, 20, 82, 72, 41, 166, 152, 114, 204, 49, 199, 28, 3, 66, 67, 86, 1, 0, 128, 0, 0, 2, 0, 0, 0, 28, 69, 82, 36, 71, 114, 36, 71, 146, 36, 201, 146, 44, 73, 147, 60, 203, 179, 60, 203, 179, 60, 77, 212, 68, 77, 21, 85, 213, 85, 109, 215, 246, 109, 95, 246, 109, 223, 213, 101, 223, 246, 101, 219, 213, 101, 93, 150, 101, 221, 181, 109, 93, 214, 93, 93, 215, 117, 93, 215, 117, 93, 215, 117, 93, 215, 117, 93, 215, 117, 93, 215, 129, 208, 144, 85, 0, 128, 4, 0, 128, 142, 228, 56, 142, 228, 56, 142, 228, 72, 142, 164, 72, 10, 16, 26, 178, 10, 0, 144, 1, 0, 16, 0, 128, 163, 56, 138, 227, 72, 142, 228, 88, 142, 37, 89, 146, 38, 105, 150, 103, 121, 150, 167, 121, 154, 168, 137, 30, 16, 26, 178, 10, 0, 0, 4, 0, 16, 0, 0, 0, 0, 0, 128, 162, 40, 138, 163, 56, 142, 36, 89, 150, 166, 105, 158, 167, 122, 162, 40, 154, 170, 170, 138, 166, 169, 170, 170, 106, 154, 166, 105, 154, 166, 105, 154, 166, 105, 154, 166, 105, 154, 166, 105, 154, 166, 105, 154, 166, 105, 154, 166, 105, 154, 166, 105, 154, 166, 105, 154, 166, 105, 2, 161, 33, 171, 0, 0, 9, 0, 0, 29, 199, 113, 28, 71, 113, 28, 199, 113, 36, 71, 146, 36, 32, 52, 100, 21, 0, 32, 3, 0, 32, 0, 0, 67, 81, 28, 69, 114, 44, 199, 146, 52, 75, 179, 60, 203, 211, 68, 207, 244, 92, 81, 54, 117, 83, 87, 109, 32, 52, 100, 21, 0, 0, 8, 0, 32, 0, 0, 0, 0, 0, 0, 199, 115, 60, 199, 115, 60, 201, 147, 60, 203, 115, 60, 199, 147, 60, 73, 211, 52, 77, 211, 52, 77, 211, 52, 77, 211, 52, 77, 211, 52, 77, 211, 52, 77, 211, 52, 77, 211, 52, 77, 211, 52, 77, 211, 52, 77, 211, 52, 77, 211, 52, 77, 211, 52, 77, 211, 52, 77, 3, 66, 67, 86, 2, 0, 100, 0, 0, 144, 2, 207, 66, 41, 45, 70, 2, 28, 136, 152, 163, 216, 123, 239, 189, 247, 222, 123, 101, 60, 146, 136, 73, 237, 49, 244, 212, 49, 7, 177, 103, 198, 35, 102, 148, 163, 216, 41, 207, 28, 66, 12, 98, 232, 60, 116, 74, 49, 136, 41, 245, 82, 50, 198, 32, 198, 216, 99, 12, 33, 148, 24, 8, 13, 89, 33, 0, 132, 102, 0, 24, 36, 9, 144, 52, 13, 144, 52, 13, 0, 0, 0, 0, 0, 0, 0, 36, 79, 3, 52, 81, 4, 52, 79, 4, 0, 0, 0, 0, 0, 0, 0, 73, 243, 0, 77, 244, 0, 77, 20, 1, 0, 0, 0, 0, 0, 0, 0, 0, 0, 0, 0, 0, 0, 0, 0, 0, 0, 0, 0, 0, 0, 0, 0, 0, 0, 0, 0, 0, 0, 0, 0, 0, 0, 0, 0, 0, 0, 0, 0, 0, 0, 0, 0, 0, 0, 0, 0, 0, 0, 0, 0, 0, 0, 0, 0, 0, 0, 0, 0, 0, 0, 0, 0, 0, 0, 0, 0, 144, 60, 13, 240, 68, 17, 208, 68, 17, 0, 0, 0, 0, 0, 0, 0, 52, 81, 4, 68, 81, 5, 68, 213, 4, 0, 0, 0, 0, 0, 0, 0, 77, 20, 1, 79, 21, 1, 209, 84, 1, 0, 0, 0, 0, 0, 0, 0, 0, 0, 0, 0, 0, 0, 0, 0, 0, 0, 0, 0, 0, 0, 0, 0, 0, 0, 0, 0, 0, 0, 0, 0, 0, 0, 0, 0, 0, 0, 0, 0, 0, 0, 0, 0, 0, 0, 0, 0, 0, 0, 0, 0, 0, 0, 0, 0, 0, 0, 0, 0, 0, 0, 0, 0, 0, 0, 0, 0, 144, 52, 15, 208, 68, 17, 240, 68, 17, 0, 0, 0, 0, 0, 0, 0, 52, 81, 4, 68, 213, 4, 60, 81, 5, 0, 0, 0, 0, 0, 0, 0, 77, 20, 1, 209, 84, 1, 81, 21, 1, 0, 0, 0, 0, 0, 0, 0, 0, 0, 0, 0, 0, 0, 0, 0, 0, 0, 0, 0, 0, 0, 0, 0, 0, 0, 0, 0, 0, 0, 0, 0, 0, 0, 0, 0, 0, 0, 0, 0, 0, 0, 0, 0, 0, 0, 0, 0, 0, 0, 0, 0, 0, 0, 0, 0, 0, 0, 0, 0, 0, 0, 0, 0, 0, 0, 0, 0, 0, 0, 0, 0, 0, 0, 0, 0, 0, 0, 0, 0, 0, 0, 0, 0, 0, 0, 0, 0, 0, 0, 0, 0, 0, 0, 0, 0, 0, 0, 0, 0, 0, 0, 0, 0, 0, 0, 0, 0, 0, 0, 0, 0, 0, 0, 0, 0, 0, 0, 0, 0, 0, 0, 0, 0, 0, 0, 0, 0, 0, 0, 0, 0, 0, 0, 0, 0, 0, 0, 0, 0, 0, 0, 0, 0, 0, 0, 0, 0, 0, 0, 0, 0, 0, 0, 0, 0, 0, 0, 0, 0, 0, 0, 0, 0, 0, 0, 0, 0, 0, 0, 0, 0, 0, 0, 0, 0, 0, 0, 0, 0, 0, 0, 0, 0, 0, 0, 0, 0, 0, 0, 0, 0, 0, 0, 0, 0, 0, 0, 0, 0, 0, 0, 0, 0, 0, 0, 0, 0, 0, 0, 0, 0, 0, 0, 0, 0, 0, 0, 0, 0, 0, 0, 0, 0, 0, 0, 0, 0, 0, 0, 0, 0, 0, 0, 0, 0, 0, 0, 0, 0, 0, 0, 0, 0, 0, 0, 0, 0, 0, 0, 0, 0, 0, 0, 0, 0, 0, 0, 0, 0, 0, 0, 0, 0, 0, 0, 0, 0, 0, 0, 0, 0, 0, 0, 0, 0, 0, 0, 0, 0, 0, 0, 0, 0, 0, 0, 0, 0, 0, 0, 0, 0, 0, 0, 0, 0, 0, 0, 0, 0, 0, 0, 0, 0, 0, 0, 0, 0, 0, 0, 0, 0, 0, 0, 0, 0, 0, 0, 0, 0, 0, 0, 0, 0, 0, 0, 0, 0, 0, 0, 0, 0, 0, 0, 0, 0, 0, 0, 0, 0, 0, 0, 0, 0, 0, 0, 0, 0, 0, 0, 0, 0, 0, 0, 0, 0, 0, 0, 0, 0, 0, 0, 0, 0, 0, 0, 0, 0, 0, 0, 0, 0, 0, 0, 0, 0, 0, 0, 0, 0, 0, 0, 0, 0, 0, 0, 0, 0, 0, 0, 0, 0, 0, 0, 0, 0, 0, 0, 0, 0, 0, 0, 0, 0, 0, 0, 0, 0, 0, 0, 0, 0, 0, 0, 0, 0, 0, 0, 0, 0, 0, 0, 0, 0, 0, 0, 0, 0, 0, 0, 0, 0, 0, 0, 0, 0, 0, 0, 0, 0, 0, 0, 0, 0, 0, 0, 0, 0, 0, 0, 0, 0, 0, 0, 0, 0, 0, 0, 0, 0, 0, 0, 0, 0, 0, 0, 0, 0, 0, 0, 0, 0, 0, 0, 0, 0, 0, 0, 0, 0, 0, 0, 0, 0, 0, 0, 0, 0, 0, 0, 0, 0, 0, 0, 0, 0, 0, 0, 0, 0, 0, 0, 0, 0, 0, 0, 0, 0, 0, 0, 0, 0, 0, 0, 0, 0, 0, 0, 0, 0, 0, 0, 0, 0, 0, 0, 0, 0, 0, 0, 0, 0, 0, 0, 0, 0, 0, 0, 0, 0, 0, 0, 0, 0, 0, 0, 0, 0, 0, 0, 0, 0, 0, 0, 0, 0, 0, 0, 0, 0, 0, 0, 0, 0, 0, 0, 0, 0, 0, 0, 0, 0, 0, 0, 0, 0, 0, 0, 0, 0, 0, 0, 0, 0, 0, 0, 0, 0, 0, 0, 0, 0, 0, 0, 0, 0, 0, 0, 0, 0, 0, 0, 0, 0, 0, 0, 0, 0, 0, 0, 0, 0, 0, 0, 0, 4, 0, 0, 4, 56, 0, 0, 4, 88, 8, 133, 134, 172, 8, 0, 226, 4, 0, 12, 142, 99, 89, 0, 0, 224, 72, 146, 166, 1, 0, 128, 35, 73, 154, 6, 0, 0, 154, 166, 137, 34, 0, 0, 88, 154, 38, 138, 0, 0, 0, 0, 0, 0, 0, 0, 0, 0, 0, 0, 0, 0, 0, 0, 0, 0, 0, 0, 0, 0, 0, 0, 0, 0, 0, 0, 0, 0, 0, 0, 0, 0, 0, 0, 0, 0, 0, 0, 0, 0, 0, 0, 0, 0, 0, 0, 0, 0, 0, 0, 0, 0, 0, 0, 0, 0, 0, 0, 0, 0, 0, 0, 0, 2, 0, 0, 6, 28, 0, 0, 2, 76, 40, 3, 133, 134, 172, 4, 0, 162, 0, 0, 12, 134, 162, 105, 0, 203, 2, 88, 22, 64, 211, 0, 154, 6, 240, 60, 128, 39, 2, 76, 19, 0, 8, 0, 0, 40, 112, 0, 0, 8, 176, 65, 83, 98, 113, 128, 66, 67, 86, 2, 0, 81, 0, 0, 6, 69, 145, 36, 203, 242, 60, 104, 154, 166, 137, 34, 52, 77, 211, 68, 17, 158, 231, 121, 162, 8, 207, 243, 60, 211, 132, 40, 122, 158, 105, 66, 20, 61, 207, 52, 97, 154, 162, 104, 154, 64, 20, 77, 83, 0, 0, 64, 129, 3, 0, 64, 128, 13, 154, 18, 139, 3, 20, 26, 178, 18, 0, 8, 9, 0, 48, 40, 138, 101, 121, 158, 40, 138, 162, 105, 170, 170, 235, 66, 211, 60, 79, 20, 69, 209, 52, 85, 213, 117, 161, 105, 158, 39, 138, 162, 104, 154, 170, 234, 186, 240, 60, 79, 52, 69, 211, 52, 77, 85, 117, 93, 120, 158, 40, 154, 166, 105, 170, 170, 234, 186, 46, 60, 79, 20, 77, 211, 52, 85, 213, 117, 93, 23, 158, 39, 138, 166, 105, 154, 170, 234, 186, 178, 12, 81, 20, 69, 211, 52, 77, 85, 117, 93, 89, 6, 162, 104, 154, 166, 169, 170, 174, 43, 203, 64, 20, 77, 83, 85, 93, 215, 117, 101, 25, 136, 162, 105, 170, 170, 235, 186, 174, 44, 3, 211, 84, 77, 85, 117, 93, 89, 150, 101, 128, 105, 170, 170, 235, 202, 178, 44, 3, 84, 213, 117, 93, 87, 150, 109, 27, 160, 170, 174, 235, 186, 178, 108, 219, 0, 215, 117, 93, 89, 150, 101, 219, 6, 224, 186, 178, 44, 203, 182, 45, 0, 0, 224, 192, 1, 0, 32, 192, 8, 58, 201, 168, 178, 8, 27, 77, 184, 240, 0, 20, 26, 178, 34, 0, 136, 2, 0, 0, 140, 81, 74, 49, 165, 12, 99, 18, 74, 41, 161, 97, 76, 74, 73, 165, 84, 82, 82, 74, 169, 148, 74, 66, 74, 41, 149, 82, 73, 73, 41, 165, 82, 50, 74, 41, 165, 214, 82, 37, 37, 149, 146, 82, 170, 164, 148, 84, 82, 74, 5, 0, 128, 29, 56, 0, 128, 29, 88, 8, 133, 134, 172, 4, 0, 242, 0, 0, 8, 66, 144, 98, 140, 49, 231, 164, 148, 74, 49, 230, 156, 115, 82, 74, 165, 24, 115, 206, 57, 41, 37, 99, 140, 57, 231, 156, 148, 146, 49, 198, 156, 115, 78, 74, 201, 152, 115, 206, 57, 39, 165, 100, 204, 57, 231, 156, 147, 82, 58, 231, 156, 115, 16, 74, 41, 165, 116, 206, 57, 8, 165, 148, 82, 66, 232, 28, 132, 82, 74, 41, 157, 115, 14, 66, 1, 0, 64, 5, 14, 0, 0, 1, 54, 138, 108, 78, 48, 18, 84, 104, 200, 74, 0, 32, 21, 0, 192, 224, 56, 150, 165, 105, 154, 230, 121, 162, 104, 73, 146, 230, 121, 162, 231, 137, 162, 169, 90, 146, 228, 121, 162, 232, 121, 162, 105, 170, 60, 207, 19, 69, 81, 20, 77, 83, 85, 137, 162, 232, 137, 162, 40, 154, 166, 170, 146, 101, 81, 52, 77, 211, 84, 85, 215, 101, 203, 162, 104, 154, 166, 169, 170, 174, 11, 211, 20, 69, 85, 117, 93, 217, 133, 105, 138, 162, 105, 186, 174, 44, 67, 182, 85, 83, 85, 93, 87, 182, 97, 219, 166, 169, 170, 174, 43, 203, 192, 117, 93, 87, 150, 109, 29, 184, 174, 235, 202, 178, 173, 11, 0, 0, 79, 112, 0, 0, 42, 176, 97, 117, 132, 147, 162, 177, 192, 66, 67, 86, 2, 0, 25, 0, 0, 4, 33, 8, 41, 165, 16, 82, 74, 33, 164, 148, 66, 72, 41, 133, 144, 0, 0, 128, 1, 7, 0, 128, 0, 19, 202, 64, 161, 33, 43, 1, 128, 84, 0, 0, 0, 66, 8, 33, 132, 16, 66, 8, 33, 132, 16, 66, 8, 33, 132, 16, 66, 8, 33, 132, 16, 66, 8, 33, 132, 16, 66, 8, 33, 132, 16, 66, 8, 33, 132, 16, 66, 8, 33, 132, 16, 66, 8, 33, 132, 16, 66, 8, 33, 132, 208, 57, 231, 156, 115, 206, 57, 231, 156, 115, 206, 57, 231, 156, 115, 206, 57, 231, 156, 115, 206, 57, 231, 156, 115, 206, 57, 231, 156, 115, 206, 57, 231, 156, 115, 206, 57, 231, 156, 115, 206, 57, 231, 156, 115, 206, 57, 231, 156, 115, 206, 57, 231, 156, 115, 78, 0, 32, 118, 133, 3, 192, 78, 132, 13, 171, 35, 156, 20, 141, 5, 22, 26, 178, 18, 0, 8, 7, 0, 0, 140, 49, 198, 57, 139, 181, 214, 90, 107, 165, 148, 82, 18, 106, 173, 181, 214, 90, 51, 133, 148, 146, 208, 98, 140, 49, 198, 24, 51, 6, 33, 165, 22, 99, 140, 49, 198, 152, 49, 231, 168, 197, 24, 99, 140, 49, 198, 214, 74, 137, 45, 198, 24, 99, 140, 49, 182, 86, 74, 140, 49, 198, 24, 99, 140, 49, 198, 216, 98, 139, 49, 198, 24, 99, 140, 49, 198, 22, 99, 140, 49, 198, 24, 99, 140, 49, 198, 24, 99, 140, 49, 198, 24, 99, 140, 49, 198, 22, 99, 140, 49, 198, 24, 99, 140, 49, 198, 24, 99, 140, 49, 198, 24, 99, 140, 49, 198, 24, 99, 140, 49, 198, 24, 99, 140, 45, 198, 24, 99, 140, 49, 198, 24, 99, 140, 49, 198, 24, 99, 140, 5, 0, 152, 60, 56, 0, 64, 37, 216, 56, 195, 74, 210, 89, 225, 104, 112, 161, 33, 43, 1, 128, 220, 0, 0, 192, 24, 165, 24, 115, 204, 57, 8, 33, 148, 82, 66, 41, 169, 181, 206, 57, 7, 33, 132, 82, 74, 41, 41, 149, 150, 82, 76, 25, 115, 206, 57, 8, 161, 148, 82, 66, 41, 41, 181, 148, 58, 231, 28, 132, 82, 74, 73, 41, 165, 148, 82, 75, 173, 117, 14, 66, 8, 161, 148, 82, 74, 73, 41, 165, 148, 90, 10, 33, 132, 82, 74, 73, 37, 165, 148, 82, 106, 173, 181, 20, 66, 8, 165, 148, 146, 82, 74, 41, 165, 148, 90, 107, 49, 148, 18, 82, 41, 165, 164, 148, 82, 42, 169, 165, 214, 82, 75, 37, 148, 146, 74, 74, 41, 165, 148, 82, 106, 45, 181, 214, 74, 41, 169, 164, 148, 82, 74, 41, 165, 148, 90, 108, 45, 133, 82, 82, 42, 41, 165, 150, 82, 74, 169, 181, 24, 91, 44, 165, 149, 148, 82, 74, 41, 165, 212, 90, 138, 173, 181, 22, 91, 74, 41, 165, 212, 82, 75, 41, 165, 214, 98, 75, 173, 165, 148, 82, 106, 41, 165, 212, 82, 106, 169, 197, 216, 90, 107, 41, 165, 148, 90, 74, 45, 181, 148, 82, 138, 173, 181, 22, 83, 74, 173, 165, 148, 90, 106, 173, 165, 22, 91, 74, 173, 165, 150, 82, 106, 45, 181, 148, 82, 107, 173, 197, 22, 91, 107, 45, 165, 150, 82, 74, 41, 181, 214, 98, 75, 49, 182, 150, 90, 73, 41, 165, 150, 90, 75, 173, 197, 214, 98, 107, 173, 181, 212, 90, 75, 45, 165, 212, 98, 139, 49, 198, 216, 98, 108, 45, 166, 148, 82, 106, 41, 181, 84, 0, 0, 208, 129, 3, 0, 64, 128, 17, 149, 22, 98, 167, 25, 87, 30, 129, 35, 10, 25, 38, 160, 66, 67, 86, 2, 0, 100, 0, 0, 4, 50, 77, 50, 39, 41, 53, 194, 36, 167, 24, 148, 210, 156, 115, 74, 41, 165, 148, 134, 200, 146, 12, 82, 12, 170, 35, 147, 49, 39, 41, 103, 136, 52, 134, 20, 164, 158, 41, 242, 152, 82, 12, 98, 8, 73, 133, 78, 49, 135, 173, 38, 31, 75, 232, 32, 214, 160, 140, 17, 46, 165, 24, 0, 0, 0, 65, 0, 128, 128, 144, 0, 0, 3, 4, 5, 51, 0, 192, 224, 0, 97, 228, 64, 160, 35, 128, 192, 161, 13, 0, 48, 16, 33, 51, 129, 65, 33, 52, 56, 200, 4, 128, 7, 136, 8, 169, 0, 32, 49, 65, 81, 186, 208, 5, 33, 68, 144, 46, 130, 44, 30, 184, 112, 226, 198, 19, 55, 156, 208, 161, 13, 4, 0, 0, 0, 0, 0, 4, 0, 62, 0, 0, 18, 10, 32, 32, 34, 154, 185, 10, 139, 11, 140, 12, 141, 13, 142, 14, 143, 15, 16, 1, 0, 0, 0, 0, 0, 2, 128, 15, 0, 128, 36, 4, 8, 136, 136, 102, 174, 194, 226, 2, 35, 67, 99, 131, 163, 195, 227, 3, 36, 0, 0, 16, 64, 0, 0, 0, 0, 0, 4, 16, 128, 128, 128, 0, 0, 0, 0, 0, 64, 0, 0, 0, 128, 128, 79, 103, 103, 83, 0, 4, 192, 51, 0, 0, 0, 0, 0, 0, 170, 102, 6, 14, 2, 0, 0, 0, 224, 100, 9, 121, 37, 1, 104, 75, 149, 110, 123, 138, 124, 126, 133, 139, 136, 142, 138, 131, 118, 115, 165, 132, 130, 142, 135, 106, 148, 138, 140, 130, 100, 138, 145, 172, 101, 136, 142, 130, 87, 12, 0, 242, 199, 57, 151, 5, 98, 34, 138, 102, 2, 61, 215, 174, 196, 204, 21, 209, 204, 181, 0, 111, 242, 92, 46, 69, 41, 16, 252, 240, 134, 75, 0, 113, 249, 56, 7, 0, 158, 252, 241, 123, 87, 79, 127, 200, 247, 124, 255, 175, 79, 184, 12, 79, 255, 237, 35, 253, 250, 132, 22, 63, 124, 228, 41, 114, 23, 158, 124, 248, 254, 146, 239, 127, 128, 255, 255, 0, 0, 252, 240, 3, 185, 3, 0, 127, 96, 109, 195, 183, 140, 251, 16, 193, 146, 15, 6, 43, 52, 194, 239, 70, 172, 12, 0, 244, 158, 90, 29, 195, 246, 158, 90, 85, 103, 112, 167, 194, 233, 40, 103, 113, 34, 75, 24, 11, 17, 0, 212, 121, 185, 122, 123, 113, 201, 106, 213, 14, 169, 39, 23, 43, 22, 78, 196, 55, 111, 125, 201, 133, 253, 239, 191, 253, 31, 250, 31, 192, 47, 0, 162, 220, 205, 1, 130, 225, 131, 0, 248, 59, 141, 192, 152, 138, 2, 99, 148, 106, 110, 7, 60, 169, 121, 217, 242, 106, 62, 109, 78, 27, 116, 191, 245, 173, 11, 160, 120, 29, 241, 44, 232, 43, 243, 192, 171, 70, 101, 216, 151, 95, 222, 185, 229, 69, 207, 54, 251, 239, 239, 183, 235, 209, 236, 239, 251, 141, 110, 74, 79, 56, 110, 123, 51, 254, 254, 94, 109, 91, 161, 80, 232, 107, 112, 59, 18, 217, 107, 253, 219, 22, 73, 200, 118, 191, 140, 228, 201, 247, 151, 73, 66, 230, 251, 103, 71, 14, 187, 220, 221, 141, 175, 191, 77, 18, 21, 255, 197, 70, 181, 186, 93, 223, 212, 118, 28, 75, 134, 97, 240, 97, 28, 143, 238, 247, 35, 243, 229, 48, 103, 147, 49, 210, 57, 95, 102, 101, 36, 218, 214, 158, 176, 164, 26, 254, 41, 73, 251, 225, 251, 177, 158, 127, 76, 226, 222, 124, 78, 246, 94, 60, 167, 13, 25, 103, 92, 165, 150, 60, 92, 115, 47, 175, 2, 112, 58, 118, 73, 127, 245, 46, 53, 192, 8, 196, 64, 211, 244, 222, 201, 207, 73, 241, 250, 226, 169, 59, 142, 61, 142, 255, 55, 103, 94, 113, 246, 230, 168, 165, 253, 237, 65, 130, 255, 41, 63, 225, 3, 9, 1, 192, 237, 237, 253, 45, 173, 222, 18, 165, 249, 81, 14, 22, 125, 218, 55, 231, 253, 244, 215, 111, 149, 159, 180, 234, 164, 109, 63, 117, 132, 184, 246, 120, 218, 2, 38, 201, 172, 245, 15, 40, 162, 29, 190, 150, 104, 219, 223, 84, 0, 60, 169, 141, 50, 206, 120, 89, 141, 147, 201, 183, 3, 0, 120, 9, 92, 122, 245, 185, 127, 63, 45, 173, 46, 46, 188, 190, 171, 178, 5, 24, 209, 13, 207, 11, 160, 173, 0, 192, 200, 59, 18, 241, 162, 150, 47, 62, 210, 21, 154, 45, 53, 48, 28, 223, 222, 166, 157, 124, 223, 176, 35, 71, 6, 0, 76, 244, 205, 112, 64, 178, 20, 20, 245, 47, 25, 155, 47, 30, 57, 83, 14, 90, 31, 188, 180, 123, 217, 226, 43, 185, 203, 173, 91, 109, 164, 81, 230, 34, 94, 198, 126, 242, 248, 240, 126, 147, 60, 195, 144, 166, 104, 182, 14, 13, 124, 145, 8, 1, 220, 242, 53, 31, 90, 106, 242, 103, 96, 244, 145, 160, 76, 159, 193, 42, 97, 86, 205, 125, 32, 175, 228, 255, 174, 51, 19, 252, 111, 124, 126, 238, 87, 120, 224, 73, 49, 5, 8, 101, 178, 227, 201, 247, 85, 75, 169, 251, 75, 38, 234, 58, 195, 244, 230, 59, 248, 119, 185, 187, 27, 82, 204, 219, 119, 77, 138, 107, 75, 113, 110, 203, 154, 157, 175, 7, 190, 253, 15, 158, 121, 242, 186, 62, 220, 125, 125, 250, 199, 215, 247, 143, 201, 207, 255, 220, 190, 201, 79, 205, 63, 175, 187, 237, 126, 77, 24, 106, 133, 62, 137, 16, 159, 223, 247, 234, 227, 151, 72, 146, 162, 159, 38, 48, 6, 129, 187, 173, 30, 59, 191, 237, 198, 154, 202, 226, 196, 75, 44, 48, 206, 1, 222, 218, 145, 39, 160, 49, 37, 16, 73, 197, 101, 195, 56, 76, 209, 144, 87, 226, 95, 117, 151, 10, 126, 174, 55, 215, 48, 244, 125, 102, 153, 20, 16, 202, 235, 220, 251, 209, 112, 97, 77, 42, 180, 54, 47, 214, 22, 49, 79, 71, 167, 169, 213, 246, 118, 239, 91, 160, 137, 95, 251, 253, 131, 81, 254, 252, 215, 254, 95, 253, 130, 217, 125, 189, 180, 246, 54, 234, 247, 204, 41, 132, 66, 62, 111, 219, 191, 147, 70, 46, 239, 238, 234, 189, 109, 0, 128, 185, 201, 212, 123, 39, 13, 224, 14, 69, 84, 14, 179, 178, 236, 161, 74, 83, 218, 85, 29, 245, 253, 178, 13, 239, 151, 0, 190, 10, 34, 87, 16, 196, 14, 224, 244, 86, 11, 98, 213, 172, 0, 207, 248, 223, 117, 225, 231, 50, 7, 179, 50, 217, 1, 97, 39, 221, 233, 39, 223, 67, 177, 174, 166, 233, 254, 111, 158, 206, 157, 251, 53, 79, 127, 252, 224, 31, 252, 240, 103, 95, 61, 77, 63, 54, 137, 167, 34, 192, 254, 171, 234, 159, 182, 41, 217, 137, 28, 158, 19, 183, 137, 13, 76, 107, 121, 183, 159, 255, 175, 56, 242, 239, 239, 115, 250, 147, 125, 220, 149, 184, 56, 61, 130, 221, 15, 252, 138, 52, 13, 20, 226, 35, 74, 253, 25, 19, 191, 210, 158, 115, 26, 24, 159, 198, 108, 152, 7, 220, 146, 143, 37, 1, 190, 26, 98, 247, 192, 216, 1, 114, 188, 198, 34, 226, 104, 250, 16, 208, 239, 73, 223, 237, 126, 238, 101, 192, 151, 87, 13, 124, 109, 149, 203, 40, 8, 101, 167, 83, 29, 222, 156, 223, 208, 244, 248, 123, 189, 41, 106, 127, 236, 241, 246, 112, 15, 208, 91, 236, 171, 79, 254, 227, 99, 127, 120, 118, 249, 236, 210, 147, 187, 222, 149, 109, 80, 255, 193, 122, 21, 109, 23, 133, 127, 135, 186, 30, 229, 136, 244, 106, 127, 241, 219, 101, 114, 122, 228, 94, 28, 26, 244, 188, 149, 147, 196, 222, 134, 241, 48, 169, 79, 108, 31, 183, 104, 157, 250, 119, 235, 211, 7, 245, 146, 174, 134, 222, 186, 69, 73, 6, 172, 152, 59, 254, 0, 158, 186, 17, 151, 64, 232, 25, 192, 234, 168, 166, 140, 32, 76, 26, 41, 189, 230, 223, 241, 42, 110, 108, 30, 104, 251, 253, 205, 79, 123, 55, 53, 131, 243, 206, 229, 83, 44, 20, 128, 29, 188, 244, 244, 140, 96, 254, 152, 235, 223, 235, 124, 169, 113, 119, 152, 143, 155, 243, 7, 255, 248, 127, 3, 153, 249, 137, 124, 141, 132, 6, 245, 107, 200, 243, 179, 46, 253, 150, 164, 41, 71, 0, 247, 39, 255, 161, 250, 183, 166, 245, 250, 209, 215, 239, 52, 57, 53, 52, 12, 106, 141, 30, 154, 232, 122, 250, 116, 89, 94, 245, 22, 120, 254, 204, 117, 217, 49, 31, 253, 228, 191, 244, 89, 250, 66, 140, 35, 116, 50, 39, 192, 123, 67, 198, 134, 9, 178, 0, 190, 234, 81, 151, 64, 97, 78, 192, 106, 169, 192, 92, 130, 24, 35, 114, 43, 250, 93, 87, 133, 134, 251, 224, 200, 53, 131, 115, 205, 24, 159, 82, 7, 0, 239, 249, 115, 234, 104, 202, 91, 255, 159, 91, 31, 237, 216, 114, 111, 252, 60, 52, 197, 184, 123, 90, 114, 107, 63, 252, 97, 81, 126, 160, 121, 246, 145, 54, 77, 18, 56, 61, 120, 126, 243, 187, 121, 235, 80, 200, 138, 125, 26, 17, 249, 68, 242, 223, 129, 215, 79, 79, 23, 127, 63, 189, 222, 230, 42, 90, 75, 206, 112, 107, 43, 56, 196, 99, 166, 213, 30, 110, 121, 0, 228, 184, 237, 254, 50, 126, 232, 39, 131, 161, 29, 141, 26, 135, 31, 206, 157, 255, 239, 98, 229, 0, 222, 250, 49, 39, 142, 136, 253, 21, 244, 242, 83, 169, 168, 224, 28, 37, 92, 58, 82, 79, 222, 127, 222, 188, 127, 236, 125, 213, 211, 201, 72, 231, 185, 60, 149, 215, 33, 0, 172, 83, 216, 185, 218, 187, 144, 92, 53, 144, 127, 61, 253, 240, 167, 247, 255, 252, 246, 147, 143, 145, 15, 114, 249, 4, 52, 229, 206, 125, 255, 254, 175, 234, 234, 115, 36, 167, 7, 162, 22, 239, 95, 23, 29, 150, 130, 120, 13, 0, 67, 61, 79, 47, 233, 179, 143, 185, 237, 235, 109, 189, 203, 105, 146, 235, 223, 124, 141, 132, 61, 145, 166, 83, 15, 218, 61, 13, 39, 167, 127, 244, 99, 197, 135, 177, 211, 173, 126, 251, 246, 109, 159, 240, 3, 217, 164, 67, 249, 229, 208, 128, 47, 1, 126, 10, 194, 183, 64, 221, 48, 221, 71, 166, 157, 46, 89, 171, 41, 34, 197, 102, 250, 37, 0, 233, 223, 237, 79, 115, 122, 149, 78, 160, 120, 166, 60, 80, 146, 113, 187, 0, 32, 141, 251, 31, 41, 95, 214, 31, 63, 211, 11, 127, 204, 165, 215, 87, 44, 172, 236, 124, 194, 196, 99, 224, 123, 178, 250, 88, 193, 170, 199, 71, 61, 183, 215, 126, 133, 15, 31, 159, 146, 43, 237, 19, 122, 31, 149, 250, 232, 223, 187, 239, 170, 42, 201, 126, 155, 100, 123, 147, 109, 224, 202, 116, 123, 21, 238, 154, 50, 137, 108, 127, 172, 153, 57, 240, 108, 70, 158, 36, 128, 41, 253, 213, 63, 51, 189, 103, 212, 48, 226, 125, 116, 21, 247, 178, 254, 138, 15, 9, 222, 234, 129, 13, 208, 80, 175, 160, 219, 105, 53, 231, 5, 167, 235, 115, 1, 210, 255, 241, 234, 170, 255, 22, 67, 62, 136, 116, 218, 215, 251, 253, 88, 231, 213, 93, 129, 132, 250, 245, 8, 0, 245, 183, 126, 1, 222, 223, 217, 223, 37, 57, 95, 140, 221, 185, 234, 159, 80, 149, 62, 155, 11, 196, 52, 49, 98, 225, 110, 45, 252, 96, 189, 65, 210, 180, 248, 251, 115, 197, 215, 39, 81, 144, 82, 118, 115, 255, 182, 212, 182, 177, 120, 35, 129, 216, 255, 211, 125, 91, 247, 25, 189, 57, 65, 156, 210, 109, 115, 233, 203, 163, 245, 87, 59, 222, 211, 81, 105, 211, 76, 127, 69, 58, 156, 251, 214, 183, 95, 21, 8, 126, 234, 137, 39, 0, 53, 47, 164, 180, 111, 84, 53, 53, 76, 162, 122, 5, 13, 178, 126, 199, 222, 14, 32, 189, 187, 61, 13, 250, 202, 169, 160, 2, 132, 146, 246, 249, 127, 195, 159, 182, 247, 249, 62, 218, 208, 228, 184, 91, 217, 15, 109, 247, 229, 194, 118, 227, 6, 127, 63, 254, 204, 252, 27, 164, 252, 221, 231, 244, 222, 65, 122, 245, 81, 197, 83, 236, 217, 101, 74, 88, 97, 238, 252, 127, 5, 219, 218, 254, 255, 251, 249, 217, 239, 223, 255, 5, 73, 125, 9, 193, 89, 120, 238, 59, 55, 121, 206, 79, 249, 61, 96, 44, 194, 66, 252, 31, 1, 62, 26, 170, 247, 64, 137, 218, 145, 17, 25, 189, 85, 138, 217, 228, 208, 13, 13, 34, 7, 33, 241, 97, 59, 140, 135, 187, 29, 158, 27, 48, 246, 0, 161, 124, 21, 208, 24, 99, 20, 230, 232, 247, 232, 242, 205, 245, 95, 95, 225, 89, 46, 15, 167, 116, 125, 114, 120, 244, 255, 243, 103, 111, 5, 123, 54, 254, 107, 209, 52, 91, 247, 101, 120, 197, 165, 67, 47, 122, 185, 186, 182, 88, 161, 13, 189, 33, 191, 197, 231, 221, 167, 52, 63, 255, 122, 115, 211, 80, 66, 113, 246, 84, 59, 179, 157, 102, 70, 214, 67, 183, 2, 173, 13, 0, 150, 106, 170, 206, 64, 140, 87, 133, 229, 171, 37, 161, 186, 106, 199, 61, 10, 147, 33, 215, 226, 215, 239, 13, 45, 184, 214, 238, 235, 225, 180, 28, 250, 166, 46, 163, 130, 211, 206, 194, 208, 36, 187, 42, 92, 22, 245, 94, 188, 204, 115, 54, 222, 47, 207, 183, 190, 201, 175, 215, 144, 124, 231, 172, 119, 105, 71, 134, 189, 253, 161, 62, 207, 123, 250, 246, 119, 126, 251, 157, 23, 22, 47, 188, 246, 244, 203, 151, 187, 65, 156, 62, 105, 82, 143, 103, 249, 157, 254, 185, 77, 111, 62, 253, 124, 39, 155, 216, 94, 237, 53, 203, 226, 187, 172, 239, 214, 239, 235, 253, 247, 249, 251, 188, 252, 126, 254, 176, 9, 224, 178, 218, 136, 232, 131, 124, 237, 61, 242, 41, 180, 220, 112, 3, 58, 228, 110, 129, 174, 52, 202, 224, 255, 84, 0, 124, 91, 94, 77, 86, 35, 211, 167, 8, 0, 76, 169, 229, 73, 187, 240, 244, 218, 160, 7, 247, 27, 0, 235, 172, 125, 110, 118, 173, 3, 98, 57, 162, 253, 190, 60, 22, 70, 63, 12, 116, 231, 205, 111, 151, 195, 122, 63, 56, 138, 37, 218, 126, 158, 234, 162, 126, 62, 237, 41, 11, 254, 127, 255, 201, 247, 155, 104, 159, 225, 127, 130, 178, 55, 245, 89, 215, 174, 125, 252, 217, 34, 247, 13, 210, 250, 183, 197, 48, 6, 144, 48, 38, 23, 70, 146, 92, 79, 199, 235, 215, 111, 107, 242, 165, 179, 240, 93, 228, 43, 144, 232, 215, 7, 109, 198, 164, 163, 249, 27, 253, 254, 158, 149, 175, 17, 157, 223, 149, 241, 5, 105, 78, 70, 128, 126, 24, 223, 140, 77, 146, 2, 100, 175, 101, 93, 59, 152, 44, 182, 164, 155, 186, 151, 1, 128, 215, 109, 92, 112, 57, 252, 6, 203, 12, 198, 240, 30, 212, 26, 137, 50, 231, 10, 36, 220, 218, 210, 120, 76, 142, 27, 135, 191, 57, 175, 255, 74, 31, 31, 251, 110, 39, 68, 238, 254, 31, 252, 255, 191, 54, 255, 119, 190, 156, 185, 127, 185, 250, 143, 191, 184, 187, 78, 1, 215, 247, 208, 96, 5, 199, 75, 146, 223, 118, 155, 151, 232, 135, 100, 244, 195, 201, 217, 118, 172, 239, 180, 50, 124, 183, 90, 25, 157, 169, 250, 253, 158, 142, 241, 199, 124, 117, 95, 33, 219, 198, 169, 255, 167, 239, 57, 190, 0, 0, 184, 61, 252, 217, 120, 93, 82, 76, 187, 61, 145, 150, 103, 179, 218, 56, 55, 252, 126, 88, 194, 166, 37, 15, 161, 11, 231, 223, 158, 239, 187, 214, 2, 50, 155, 51, 64, 217, 247, 41, 145, 8, 79, 152, 143, 157, 74, 85, 244, 250, 240, 116, 232, 114, 253, 126, 203, 116, 235, 239, 254, 248, 1, 239, 179, 222, 155, 230, 83, 234, 167, 157, 243, 221, 159, 143, 41, 4, 3, 0, 216, 68, 175, 252, 252, 158, 159, 2, 133, 102, 185, 49, 106, 212, 142, 222, 111, 254, 254, 54, 237, 201, 225, 112, 240, 211, 67, 29, 190, 140, 201, 215, 244, 173, 120, 203, 248, 86, 58, 14, 124, 37, 95, 49, 72, 155, 206, 83, 254, 207, 75, 241, 80, 60, 243, 23, 229, 255, 196, 124, 6, 116, 92, 254, 163, 87, 149, 103, 0, 84, 187, 113, 74, 210, 51, 218, 48, 87, 244, 150, 160, 235, 193, 47, 160, 249, 207, 133, 73, 78, 21, 134, 103, 192, 235, 111, 30, 170, 218, 185, 14, 118, 231, 221, 241, 255, 207, 208, 69, 199, 254, 25, 226, 50, 61, 251, 244, 125, 63, 218, 141, 66, 180, 128, 43, 93, 71, 225, 77, 240, 167, 255, 213, 37, 157, 231, 238, 251, 239, 60, 246, 231, 254, 225, 173, 244, 228, 185, 111, 182, 43, 185, 131, 3, 30, 61, 29, 1, 17, 186, 198, 124, 231, 108, 28, 166, 227, 123, 204, 145, 180, 233, 152, 153, 163, 249, 78, 154, 142, 102, 126, 205, 204, 145, 143, 233, 219, 49, 236, 249, 222, 157, 213, 61, 166, 253, 3, 100, 252, 81, 250, 186, 206, 1, 92, 185, 17, 64, 155, 133, 218, 244, 145, 223, 66, 164, 100, 231, 176, 247, 173, 203, 215, 7, 32, 70, 227, 3, 62, 47, 181, 208, 52, 191, 184, 52, 177, 25, 159, 68, 105, 76, 190, 119, 177, 15, 234, 97, 255, 149, 63, 45, 57, 179, 116, 232, 59, 191, 220, 127, 242, 172, 103, 225, 244, 24, 175, 167, 236, 63, 148, 142, 107, 67, 132, 149, 180, 250, 130, 107, 245, 179, 104, 228, 46, 9, 180, 213, 182, 249, 151, 57, 169, 117, 178, 150, 15, 69, 2, 192, 55, 0, 242, 245, 119, 248, 111, 248, 26, 0, 92, 193, 141, 61, 226, 246, 105, 237, 21, 136, 111, 1, 198, 97, 218, 239, 150, 216, 118, 53, 98, 202, 123, 67, 11, 213, 115, 231, 243, 219, 232, 106, 62, 60, 125, 225, 108, 233, 253, 217, 47, 167, 237, 155, 197, 254, 213, 201, 197, 219, 103, 59, 206, 78, 126, 211, 183, 90, 235, 219, 183, 235, 45, 123, 140, 103, 47, 237, 127, 242, 178, 143, 183, 158, 96, 159, 178, 141, 0, 122, 68, 66, 91, 29, 249, 155, 116, 28, 111, 209, 230, 218, 108, 110, 123, 254, 97, 252, 186, 221, 113, 184, 125, 123, 184, 205, 131, 241, 65, 155, 49, 190, 100, 246, 187, 83, 198, 24, 163, 253, 215, 169, 73, 162, 179, 183, 159, 189, 115, 181, 198, 255, 239, 57, 209, 249, 210, 74, 190, 198, 104, 191, 231, 204, 250, 230, 36, 0, 60, 191, 61, 148, 52, 217, 169, 181, 95, 33, 222, 143, 248, 174, 22, 10, 28, 111, 144, 93, 140, 225, 195, 150, 63, 127, 20, 251, 244, 222, 5, 214, 135, 228, 147, 145, 253, 254, 150, 239, 232, 95, 114, 243, 159, 151, 133, 110, 247, 112, 216, 79, 243, 189, 183, 190, 159, 125, 63, 37, 153, 39, 91, 253, 185, 252, 92, 167, 45, 187, 121, 240, 67, 102, 105, 91, 96, 216, 54, 247, 242, 111, 236, 55, 253, 175, 242, 97, 112, 237, 139, 215, 29, 52, 223, 249, 110, 191, 51, 7, 95, 190, 36, 205, 119, 231, 244, 109, 214, 235, 81, 139, 73, 231, 253, 191, 207, 209, 207, 162, 136, 233, 187, 253, 110, 181, 12, 25, 249, 43, 109, 154, 217, 57, 79, 81, 159, 21, 60, 201, 113, 152, 182, 43, 181, 22, 132, 252, 59, 151, 191, 182, 49, 22, 100, 95, 244, 251, 223, 203, 235, 248, 127, 98, 14, 50, 239, 93, 250, 73, 141, 157, 202, 27, 71, 167, 72, 201, 56, 44, 41, 179, 252, 125, 242, 120, 252, 126, 191, 57, 222, 237, 124, 10, 128, 124, 52, 57, 130, 254, 188, 207, 189, 110, 41, 121, 17, 243, 37, 77, 190, 12, 70, 36, 0, 246, 132, 182, 157, 140, 140, 241, 53, 56, 183, 180, 115, 188, 57, 60, 123, 220, 53, 207, 50, 59, 231, 252, 54, 73, 51, 190, 190, 198, 168, 57, 231, 156, 213, 36, 157, 247, 127, 119, 141, 100, 72, 231, 119, 191, 103, 233, 200, 87, 210, 118, 182, 38, 227, 89, 131, 253, 151, 143, 231, 243, 187, 0, 68, 195, 61, 89, 205, 94, 161, 214, 110, 25, 117, 119, 59, 151, 131, 255, 240, 159, 181, 26, 115, 104, 215, 81, 11, 147, 32, 31, 51, 60, 127, 164, 248, 113, 253, 38, 187, 166, 169, 98, 219, 175, 91, 164, 35, 14, 236, 117, 157, 238, 167, 243, 186, 49, 130, 125, 171, 78, 118, 90, 219, 239, 122, 213, 127, 2, 71, 10, 13, 20, 157, 135, 49, 124, 207, 93, 253, 108, 3, 53, 251, 78, 51, 16, 10, 132, 243, 123, 60, 252, 207, 121, 190, 46, 49, 210, 239, 32, 95, 124, 75, 163, 117, 209, 153, 240, 161, 96, 12, 232, 11, 36, 173, 248, 102, 232, 124, 100, 159, 216, 17, 231, 151, 87, 124, 205, 126, 75, 135, 0, 60, 67, 199, 125, 69, 92, 161, 121, 46, 184, 103, 229, 186, 154, 90, 161, 166, 221, 150, 83, 65, 138, 202, 185, 110, 249, 67, 135, 231, 171, 23, 169, 254, 116, 118, 122, 185, 187, 127, 247, 110, 221, 249, 184, 58, 45, 204, 122, 228, 26, 31, 89, 154, 47, 246, 161, 8, 170, 155, 112, 247, 29, 19, 59, 95, 200, 194, 227, 127, 35, 3, 80, 148, 68, 218, 120, 116, 156, 31, 134, 175, 186, 226, 199, 24, 27, 65, 13, 189, 55, 172, 158, 246, 122, 216, 56, 156, 124, 55, 20, 84, 63, 135, 191, 20, 91, 233, 195, 106, 220, 123, 101, 194, 169, 246, 113, 182, 109, 81, 48, 7, 135, 127, 111, 239, 76, 74, 148, 191, 127, 244, 144, 226, 207, 175, 120, 237, 210, 199, 23, 124, 252, 236, 14, 81, 237, 189, 127, 238, 124, 251, 247, 230, 187, 122, 62, 128, 64, 248, 71, 255, 230, 71, 75, 190, 94, 190, 44, 11, 13, 60, 121, 251, 193, 48, 134, 225, 182, 68, 154, 180, 169, 127, 237, 24, 25, 189, 207, 55, 166, 243, 250, 75, 111, 63, 243, 219, 167, 231, 193, 239, 174, 39, 233, 216, 227, 164, 46, 254, 211, 136, 78, 249, 74, 191, 43, 49, 71, 156, 203, 208, 217, 36, 253, 110, 50, 38, 125, 108, 62, 207, 125, 78, 190, 53, 3, 5, 0, 92, 63, 243, 135, 182, 58, 181, 22, 24, 247, 247, 182, 236, 156, 111, 234, 203, 43, 118, 182, 227, 227, 133, 162, 11, 52, 95, 247, 85, 159, 82, 99, 149, 196, 79, 169, 127, 223, 184, 221, 189, 120, 100, 38, 239, 127, 182, 198, 121, 231, 91, 95, 157, 61, 98, 211, 243, 228, 231, 252, 105, 62, 232, 151, 187, 254, 220, 79, 175, 188, 127, 158, 111, 162, 4, 159, 159, 147, 142, 165, 67, 141, 210, 231, 237, 105, 179, 87, 190, 243, 85, 169, 232, 148, 121, 59, 110, 123, 240, 235, 27, 125, 240, 240, 195, 122, 251, 122, 241, 127, 190, 205, 119, 191, 230, 28, 223, 77, 43, 237, 108, 160, 127, 205, 232, 28, 157, 99, 124, 143, 76, 227, 187, 35, 0, 208, 229, 175, 127, 111, 242, 55, 110, 1, 0, 50, 170, 235, 123, 9, 236, 165, 96, 82, 178, 95, 79, 243, 29, 208, 236, 2, 230, 18, 250, 117, 95, 228, 177, 75, 53, 13, 124, 192, 247, 166, 203, 174, 140, 48, 57, 123, 202, 246, 224, 237, 233, 205, 184, 51, 166, 183, 27, 107, 15, 151, 7, 95, 178, 237, 253, 97, 100, 194, 165, 60, 65, 182, 30, 229, 238, 239, 195, 10, 212, 29, 186, 115, 244, 112, 175, 230, 215, 191, 185, 107, 54, 121, 189, 255, 212, 90, 127, 121, 206, 225, 232, 218, 228, 221, 147, 231, 217, 100, 90, 253, 227, 39, 108, 77, 27, 128, 62, 251, 62, 253, 254, 233, 63, 114, 106, 255, 123, 25, 82, 202, 98, 180, 111, 168, 135, 155, 203, 159, 188, 250, 1, 230, 182, 63, 191, 29, 167, 251, 177, 30, 190, 150, 229, 228, 157, 157, 64, 104, 131, 24, 247, 244, 107, 112, 142, 15, 239, 175, 199, 116, 15, 172, 222, 108, 174, 217, 27, 86, 124, 231, 0, 76, 175, 141, 204, 234, 188, 10, 125, 212, 230, 185, 30, 142, 245, 122, 65, 219, 183, 125, 30, 190, 126, 124, 223, 247, 210, 98, 92, 107, 27, 128, 72, 12, 198, 11, 165, 183, 115, 255, 185, 189, 250, 144, 246, 43, 228, 87, 107, 93, 135, 175, 246, 142, 113, 63, 213, 203, 183, 146, 130, 0, 27, 52, 151, 11, 73, 72, 122, 153, 253, 230, 236, 213, 190, 27, 253, 101, 77, 223, 154, 27, 147, 59, 162, 70, 15, 200, 86, 255, 29, 21, 253, 248, 86, 168, 170, 249, 74, 155, 40, 0, 76, 177, 196, 78, 248, 52, 250, 16, 166, 189, 254, 174, 243, 0, 47, 112, 108, 167, 253, 249, 193, 213, 89, 180, 224, 193, 182, 239, 255, 60, 185, 90, 233, 0, 48, 41, 18, 59, 28, 46, 142, 255, 127, 58, 255, 246, 234, 67, 226, 226, 241, 128, 174, 189, 82, 126, 115, 115, 31, 30, 198, 94, 117, 179, 75, 115, 116, 250, 114, 123, 234, 206, 207, 225, 67, 144, 21, 67, 0, 157, 191, 135, 18, 64, 250, 163, 81, 138, 228, 187, 255, 141, 102, 180, 233, 152, 63, 254, 189, 116, 254, 144, 145, 104, 159, 233, 166, 232, 54, 42, 134, 255, 191, 190, 38, 57, 217, 205, 9, 107, 186, 209, 169, 157, 184, 88, 131, 241, 237, 43, 77, 52, 17, 166, 5, 0, 44, 167, 68, 51, 180, 211, 230, 163, 138, 21, 247, 206, 115, 112, 231, 59, 239, 123, 31, 56, 120, 193, 28, 60, 247, 191, 121, 213, 133, 123, 223, 220, 34, 39, 118, 124, 210, 82, 114, 254, 254, 253, 191, 165, 247, 223, 39, 165, 201, 70, 201, 249, 93, 30, 127, 15, 222, 61, 10, 155, 255, 206, 158, 46, 1, 153, 213, 97, 28, 221, 156, 166, 182, 198, 110, 77, 136, 8, 255, 242, 208, 113, 233, 186, 8, 254, 246, 251, 243, 183, 198, 90, 243, 232, 132, 113, 24, 101, 28, 140, 183, 207, 197, 219, 251, 46, 198, 24, 67, 211, 144, 202, 247, 152, 17, 218, 243, 191, 156, 252, 112, 100, 122, 103, 70, 30, 122, 154, 191, 153, 233, 135, 233, 120, 184, 209, 227, 99, 228, 24, 223, 12, 250, 167, 97, 85, 134, 233, 47, 34, 55, 81, 229, 111, 243, 117, 17, 99, 71, 21, 145, 117, 239, 229, 165, 170, 170, 4, 208, 224, 244, 173, 219, 111, 125, 235, 225, 248, 247, 67, 159, 182, 125, 124, 234, 167, 151, 60, 59, 211, 244, 205, 79, 63, 124, 61, 157, 78, 103, 85, 105, 155, 159, 242, 249, 86, 78, 235, 177, 151, 167, 164, 81, 105, 242, 83, 90, 104, 141, 157, 209, 59, 154, 187, 111, 238, 238, 19, 213, 207, 198, 100, 148, 120, 9, 105, 206, 169, 50, 141, 3, 220, 53, 218, 198, 231, 92, 170, 169, 253, 46, 71, 179, 74, 64, 117, 23, 51, 182, 192, 24, 129, 155, 121, 115, 25, 17, 172, 147, 243, 17, 1, 30, 184, 25, 161, 105, 57, 13, 35, 168, 248, 179, 20, 216, 249, 185, 136, 49, 16, 65, 194, 101, 85, 105, 170, 170, 10, 128, 125, 190, 33, 205, 211, 227, 247, 99, 229, 233, 241, 233, 177, 1, 104, 159, 111, 214, 7, 29, 239, 14, 95, 14, 189, 235, 100, 239, 215, 231, 192, 205, 89, 39, 227, 231, 207, 244, 222, 128, 180, 122, 191, 2, 124, 45, 199, 39, 223, 29, 160, 12, 237, 147, 183, 138, 92, 11, 23, 9, 30, 216, 249, 153, 136, 1, 68, 0, 0, 0, 0, 0 )

[node name="freeze_gun" type="KinematicBody2D"]
scale = Vector2( 0.5, 0.5 )
collision_layer = 0
script = ExtResource( 2 )
item = "freeze_gun"
amount = 2
object = ExtResource( 1 )

[node name="Area2D" type="Area2D" parent="."]

[node name="CollisionShape2D" type="CollisionShape2D" parent="Area2D"]
position = Vector2( -0.5, 0 )
shape = SubResource( 1 )

[node name="CollisionShape2D" type="CollisionShape2D" parent="."]
position = Vector2( 4, 7.5 )
shape = SubResource( 2 )

[node name="Sprite" type="Sprite" parent="."]
texture = ExtResource( 3 )

[node name="sound" type="AudioStreamPlayer2D" parent="."]
stream = SubResource( 3 )
volume_db = -7.939
autoplay = true

[connection signal="body_entered" from="Area2D" to="." method="_on_Area2D_body_entered"]
